test/comm_ic.vcd
$date
	Thu Sep 05 03:36:02 2024
$end
$version
	ModelSim Version 10.5b
$end
$timescale
	1ps
$end

$scope module test_comm_ic $end
$var reg 1 ! clk $end
$var reg 1 " reset_n $end
$var wire 1 # UART_TX $end
$var wire 1 $ UART_RX $end
$var wire 1 % SEN $end
$var wire 1 & SCLK $end
$var wire 1 ' MOSI $end
$var wire 1 ( MISO $end
$var wire 1 ) SCL $end
$var wire 1 * SDA_op $end
$var reg 1 + SDA_in $end
$var wire 1 , SDA_op_en $end
$var wire 1 - new_uart $end
$var wire 1 . busy_uart $end
$var wire 1 / busy_spi $end
$var wire 1 0 busy_i2c $end
$var reg 4 1 data_in [3:0] $end
$var wire 1 2 data_out [3] $end
$var wire 1 3 data_out [2] $end
$var wire 1 4 data_out [1] $end
$var wire 1 5 data_out [0] $end
$var wire 1 6 data_op_en [3] $end
$var wire 1 7 data_op_en [2] $end
$var wire 1 8 data_op_en [1] $end
$var wire 1 9 data_op_en [0] $end
$var reg 1 : data_en $end
$upscope $end
$enddefinitions $end
#0
$dumpvars
0!
0"
0+
b0 1
0:
1$
1#
x%
x&
x'
x(
x)
x*
x,
0-
0.
x/
x0
x5
x4
x3
x2
x9
x8
x7
x6
$end
#2000
1!
1%
0&
0'
0/
1)
1*
1,
00
09
08
07
06
0(
#4000
0!
#6000
1!
#8000
0!
#10000
1"
1!
1/
#12000
0!
#14000
1!
1:
b1100 1
#16000
0!
#18000
1!
b101 1
#20000
0!
#22000
1!
b0 1
#24000
0!
#26000
1!
b111 1
#28000
0!
#30000
1!
b1101 1
#32000
0!
#34000
1!
b100 1
#36000
0!
#38000
1!
b0 1
#40000
0!
#42000
1!
b10 1
#44000
0!
#46000
1!
b1110 1
#48000
0!
#50000
1!
b11 1
#52000
0!
#54000
1!
b0 1
#56000
0!
#58000
1!
#60000
0!
#62000
1!
b1000 1
#64000
0!
#66000
1!
b1100 1
#68000
0!
#70000
1!
b111 1
#72000
0!
#74000
1!
b1001 1
#76000
0!
#78000
1!
b1100 1
#80000
0!
#82000
1!
b1111 1
#84000
0!
#86000
1!
b0 1
#88000
0!
#90000
1!
b1010 1
#92000
0!
#94000
1!
#96000
0!
#98000
1!
b1101 1
#100000
0!
#102000
1!
b1001 1
#104000
0!
#106000
1!
b1110 1
#108000
0!
#110000
1!
b1011 1
0:
#112000
0!
#114000
1!
10
