test/i2c.vcd
$date
	Thu Sep 05 00:25:08 2024
$end
$version
	ModelSim Version 10.5b
$end
$timescale
	1ps
$end

$scope module test_i2c $end
$var reg 1 ! clk $end
$var reg 1 " reset_n $end
$var reg 1 # start $end
$var reg 1 $ bits16 $end
$var reg 1 % write_n $end
$var reg 7 & address [6:0] $end
$var reg 16 ' data_in [15:0] $end
$var reg 8 ( clk_cnt [7:0] $end
$var wire 1 ) data_out [15] $end
$var wire 1 * data_out [14] $end
$var wire 1 + data_out [13] $end
$var wire 1 , data_out [12] $end
$var wire 1 - data_out [11] $end
$var wire 1 . data_out [10] $end
$var wire 1 / data_out [9] $end
$var wire 1 0 data_out [8] $end
$var wire 1 1 data_out [7] $end
$var wire 1 2 data_out [6] $end
$var wire 1 3 data_out [5] $end
$var wire 1 4 data_out [4] $end
$var wire 1 5 data_out [3] $end
$var wire 1 6 data_out [2] $end
$var wire 1 7 data_out [1] $end
$var wire 1 8 data_out [0] $end
$var wire 1 9 busy $end
$var wire 1 : error $end
$var wire 1 ; SCL $end
$var wire 1 < SDA_op $end
$var reg 1 = SDA_in $end
$var wire 1 > op_en $end
$upscope $end
$enddefinitions $end
#0
$dumpvars
0!
0"
0#
0$
0%
b0 &
b0 '
b0 (
z=
x8
x7
x6
x5
x4
x3
x2
x1
x0
x/
x.
x-
x,
x+
x*
x)
x9
x:
x;
x<
x>
$end
#2000
1!
1;
1<
1>
08
07
06
05
04
03
02
01
00
0/
0.
0-
0,
0+
0*
0)
09
0:
#4000
1"
0!
#6000
1!
#8000
b1001101 &
b1001001 '
b110010 (
0!
#10000
1!
#12000
1#
0!
#14000
1!
19
#16000
0#
0!
#18000
1!
#20000
0!
#22000
1!
#24000
0!
#26000
1!
#28000
0!
#30000
1!
#32000
0!
#34000
1!
#36000
0!
#38000
1!
#40000
0!
#42000
1!
#44000
0!
#46000
1!
#48000
0!
#50000
1!
#52000
0!
#54000
1!
#56000
0!
#58000
1!
#60000
0!
#62000
1!
#64000
0!
#66000
1!
#68000
0!
#70000
1!
#72000
0!
#74000
1!
#76000
0!
#78000
1!
#80000
0!
#82000
1!
#84000
0!
#86000
1!
#88000
0!
#90000
1!
#92000
0!
#94000
1!
#96000
0!
#98000
1!
#100000
0!
#102000
1!
#104000
0!
#106000
1!
#108000
0!
#110000
1!
#112000
0!
#114000
1!
0<
