test/spi.vcd
$date
	Thu Sep 05 03:47:52 2024
$end
$version
	ModelSim Version 10.5b
$end
$timescale
	1ps
$end

$scope module test_spi $end
$var reg 1 ! clk $end
$var reg 1 " reset_n $end
$var reg 1 # start $end
$var reg 1 $ bits16 $end
$var reg 2 % mode [1:0] $end
$var reg 16 & data_in [15:0] $end
$var reg 8 ' clk_cnt [7:0] $end
$var wire 1 ( data_out [15] $end
$var wire 1 ) data_out [14] $end
$var wire 1 * data_out [13] $end
$var wire 1 + data_out [12] $end
$var wire 1 , data_out [11] $end
$var wire 1 - data_out [10] $end
$var wire 1 . data_out [9] $end
$var wire 1 / data_out [8] $end
$var wire 1 0 data_out [7] $end
$var wire 1 1 data_out [6] $end
$var wire 1 2 data_out [5] $end
$var wire 1 3 data_out [4] $end
$var wire 1 4 data_out [3] $end
$var wire 1 5 data_out [2] $end
$var wire 1 6 data_out [1] $end
$var wire 1 7 data_out [0] $end
$var wire 1 8 busy $end
$var wire 1 9 SEN $end
$var wire 1 : SCLK $end
$var wire 1 ; MOSI $end
$var wire 1 < MISO $end
$upscope $end
$enddefinitions $end
#0
$dumpvars
0!
0"
0#
0$
b0 %
b0 &
b0 '
x7
x6
x5
x4
x3
x2
x1
x0
x/
x.
x-
x,
x+
x*
x)
x(
x8
x9
x:
x;
x<
$end
#2000
1!
19
0:
0;
07
06
05
04
03
02
01
00
0/
0.
0-
0,
0+
0*
0)
0(
08
0<
#4000
1"
0!
#6000
1!
#8000
b110010 '
0!
#10000
1!
#12000
0!
#14000
1!
#16000
0!
#18000
1!
#20000
0!
#22000
1!
#24000
0!
#26000
1!
#28000
0!
#30000
1!
#32000
0!
#34000
1!
#36000
0!
#38000
1!
#40000
0!
#42000
1!
#44000
0!
#46000
1!
#48000
0!
#50000
1!
#52000
0!
#54000
1!
#56000
0!
#58000
1#
b1001001 &
1!
18
#60000
0!
#62000
0#
1!
#64000
0!
#66000
1!
#68000
0!
#70000
1!
#72000
0!
#74000
1!
#76000
0!
#78000
1!
#80000
0!
#82000
1!
#84000
0!
#86000
1!
#88000
0!
#90000
1!
#92000
0!
#94000
1!
#96000
0!
#98000
1!
#100000
0!
#102000
1!
#104000
0!
#106000
1!
#108000
0!
#110000
1!
#112000
0!
#114000
1!
#116000
0!
#118000
1!
#120000
0!
#122000
1!
#124000
0!
#126000
1!
#128000
0!
#130000
1!
#132000
0!
#134000
1!
#136000
0!
#138000
1!
#140000
0!
#142000
1!
#144000
0!
#146000
1!
#148000
0!
#150000
1!
#152000
0!
#154000
1!
#156000
0!
#158000
1!
09
#160000
0!
#162000
1!
#164000
0!
#166000
1!
#168000
0!
#170000
1!
#172000
0!
#174000
1!
#176000
0!
#178000
1!
#180000
0!
#182000
1!
#184000
0!
#186000
1!
#188000
0!
#190000
1!
#192000
0!
#194000
1!
#196000
0!
#198000
1!
#200000
0!
#202000
1!
#204000
0!
#206000
1!
#208000
0!
#210000
1!
#212000
0!
#214000
1!
#216000
0!
#218000
1!
#220000
0!
#222000
1!
#224000
0!
#226000
1!
#228000
0!
#230000
1!
#232000
0!
#234000
1!
#236000
0!
#238000
1!
#240000
0!
#242000
1!
#244000
0!
#246000
1!
#248000
0!
#250000
1!
#252000
0!
#254000
1!
#256000
0!
#258000
1!
1:
#260000
0!
#262000
1!
#264000
0!
#266000
1!
#268000
0!
#270000
1!
#272000
0!
#274000
1!
#276000
0!
#278000
1!
#280000
0!
#282000
1!
#284000
0!
#286000
1!
#288000
0!
#290000
1!
#292000
0!
#294000
1!
#296000
0!
#298000
1!
#300000
0!
#302000
1!
#304000
0!
#306000
1!
#308000
0!
#310000
1!
#312000
0!
#314000
1!
#316000
0!
#318000
1!
#320000
0!
#322000
1!
#324000
0!
#326000
1!
#328000
0!
#330000
1!
#332000
0!
#334000
1!
#336000
0!
#338000
1!
#340000
0!
#342000
1!
#344000
0!
#346000
1!
#348000
0!
#350000
1!
#352000
0!
#354000
1!
#356000
0!
#358000
1!
0:
1;
1<
