src/Test_bench/uart.vcd
$date
	Thu Sep 05 00:23:56 2024
$end
$version
	ModelSim Version 10.5b
$end
$timescale
	1ps
$end

$scope module test_uart $end
$var reg 1 ! clk $end
$var reg 1 " reset_n $end
$var reg 1 # enable $end
$var reg 1 $ setting $end
$var reg 1 % parity_en $end
$var reg 1 & parity_odd $end
$var reg 1 ' tx_new $end
$var reg 1 ( rx_ack $end
$var wire 1 ) tx_busy $end
$var wire 1 * rx_new $end
$var wire 1 + rx_error $end
$var reg 8 , clk_cnt [7:0] $end
$var reg 8 - tx_data [7:0] $end
$var wire 1 . rx_data [7] $end
$var wire 1 / rx_data [6] $end
$var wire 1 0 rx_data [5] $end
$var wire 1 1 rx_data [4] $end
$var wire 1 2 rx_data [3] $end
$var wire 1 3 rx_data [2] $end
$var wire 1 4 rx_data [1] $end
$var wire 1 5 rx_data [0] $end
$var wire 1 6 UART_RX $end
$var wire 1 7 UART_TX $end
$upscope $end
$enddefinitions $end
#0
$dumpvars
0!
0"
0#
0$
0%
0&
0'
0(
b0 ,
b0 -
0)
0*
0+
x5
x4
x3
x2
x1
x0
x/
x.
16
17
$end
#2000
1!
#4000
1"
0!
#6000
1!
#8000
0!
#10000
1!
#12000
b110010 ,
0!
#14000
1!
#16000
1$
0!
#18000
1!
#20000
0!
#22000
1!
#24000
0$
0!
#26000
1!
#28000
1#
0!
#30000
1!
#32000
b10110011 -
1'
0!
#34000
1!
#36000
0!
#38000
1!
#40000
0!
#42000
1!
#44000
0!
#46000
1!
#48000
0!
#50000
1!
#52000
0!
#54000
1!
#56000
0!
#58000
1!
#60000
0!
#62000
1!
#64000
0!
#66000
1!
#68000
0!
#70000
1!
#72000
0!
#74000
1!
#76000
0!
#78000
1!
#80000
0!
#82000
1!
#84000
0!
#86000
1!
#88000
0!
#90000
1!
#92000
0!
#94000
1!
#96000
0!
#98000
1!
#100000
0!
#102000
1!
#104000
0!
#106000
1!
#108000
0!
#110000
1!
#112000
0!
#114000
1!
#116000
0!
#118000
1!
#120000
0!
#122000
1!
#124000
0!
#126000
1!
#128000
0!
#130000
1!
#132000
0!
#134000
1!
#136000
0!
#138000
1!
#140000
0!
#142000
1!
#144000
0!
#146000
1!
#148000
0!
#150000
1!
#152000
0!
#154000
1!
#156000
0!
#158000
1!
#160000
0!
#162000
1!
#164000
0!
#166000
1!
#168000
0!
#170000
1!
#172000
0!
#174000
1!
#176000
0!
#178000
1!
#180000
0!
#182000
1!
#184000
0!
#186000
1!
#188000
0!
#190000
1!
#192000
0!
#194000
1!
#196000
0!
#198000
1!
#200000
0!
#202000
1!
#204000
0!
#206000
1!
#208000
0!
#210000
1!
#212000
0!
#214000
1!
#216000
0!
#218000
1!
#220000
0!
#222000
1!
#224000
0!
#226000
1!
#228000
0!
#230000
1!
1)
0'
